[
  {
    "ref": "8:0",
    "html": "<strong><a href=\"https://animated-panda-6037a2.netlify.app/case-studies/visibility-healthcares-services-improves-quality\" hreflang=\"en\">Visibility Into Healthcare’s Voice and Epic Services Helps Improve Quality</a></strong>\n<p>For more than half a century, this top-ranked, academic health center has delivered the highest-quality care to the surrounding community, supporting hundreds of thousands of unique patients in…</p>\n"
  },
  {
    "ref": "8:1",
    "html": "<strong><a href=\"https://animated-panda-6037a2.netlify.app/blog/evolutions-watchword-5g-financial-services\" hreflang=\"en\">Evolution’s the Watchword for 5G in Financial Services</a></strong>\n<p>When it comes to 5G and the financial services or retail banking industries, the operative word is evolution. By adding innovation to existing progress, 5G offers the financial industry the…</p>\n"
  },
  {
    "ref": "8:2",
    "html": "<strong><a href=\"https://animated-panda-6037a2.netlify.app/blog/bpo-improves-remote-user-experience\" hreflang=\"en\">Business Process Outsourcer Improves User Experience at Remote Offices </a></strong>\n<p>Business process outsourcer makes user experience at remote offices a top priority with NETSCOUT.</p>\n"
  },
  {
    "ref": "8:3",
    "html": "<strong><a href=\"https://animated-panda-6037a2.netlify.app/blog/optimizing-application-performance-multicloud-world\" hreflang=\"en\">Optimizing Application Performance for a Multicloud World</a></strong>\n<p>As a certified Advanced VMware Technology Alliance Partner, NETSCOUT has extended its leading visibility and troubleshooting analytics platform to the NSX environment. </p>\n"
  },
  {
    "ref": "8:4",
    "html": "<strong><a href=\"https://animated-panda-6037a2.netlify.app/eric-gray-bio\" hreflang=\"en\">Eric Gray</a></strong>\n<p>NETSCOUT Chief Solutions Architect and Sales Engineering Director Eric Gray is responsible for the company’s technical planning, architecture, and major account support in the western half of North…</p>\n"
  },
  {
    "ref": "8:5",
    "html": "<strong><a href=\"https://animated-panda-6037a2.netlify.app/kirill-kasavchenko-bio\" hreflang=\"en\">Kirill Kasavchenko</a></strong>\n<p>Kirill Kasavchenko is a principal security technologist in the Office of the CTO at NETSCOUT. He has close to two decades of experience in various post- and presales roles dealing with telecom…</p>\n"
  },
  {
    "ref": "8:6",
    "html": "<strong><a href=\"https://animated-panda-6037a2.netlify.app/philippe-alcoy-bio\" hreflang=\"en\">Philippe Alcoy</a></strong>\n<p>Philippe Alcoy currently serves as APAC Security Technologies for NETSCOUT, where he works across the research, strategy and pre-sales of DDoS threat detection, investigation and mitigation solutions…</p>\n"
  },
  {
    "ref": "8:7",
    "html": "<strong><a href=\"https://animated-panda-6037a2.netlify.app/mark-doering-bio\" hreflang=\"en\">Mark Doering</a></strong>\n<p>As director of technical marketing at NETSCOUT, Mark Doering supports security product development and the implementation of enterprise security solutions, engaging with NETSCOUT field sales and…</p>\n"
  },
  {
    "ref": "8:8",
    "html": "<strong><a href=\"https://animated-panda-6037a2.netlify.app/michael-segal-bio\" hreflang=\"en\">Michael Segal</a></strong>\n<p>As the Area VP of Strategic Marketing at NETSCOUT, Michael is responsible for thought leadership, content marketing and customer advocacy for enterprise and service provider markets. </p>\n"
  },
  {
    "ref": "8:9",
    "html": "<strong><a href=\"https://animated-panda-6037a2.netlify.app/darren-anstee-bio\" hreflang=\"en\">Darren Anstee</a></strong>\n<p>Widely recognized for his intimate knowledge of both network and security technologies, Darren Anstee often contributes to technical and business publications and is a featured speaker at industry…</p>\n"
  },
  {
    "ref": "8:10",
    "html": "<strong><a href=\"https://animated-panda-6037a2.netlify.app/debby-briggs-bio\" hreflang=\"en\">Debby Briggs</a></strong>\n<p>NETSCOUT Area Vice President and Chief Security Officer Debby Briggs has more than 20 years of experience in cybersecurity and has been with NETSCOUT since 2004.</p>\n"
  },
  {
    "ref": "8:11",
    "html": "<strong><a href=\"https://animated-panda-6037a2.netlify.app/john-english-bio\" hreflang=\"en\">John English</a></strong>\n<p>John English is a Senior Marketing Manager working on Service Provider solutions at NETSCOUT focusing on NFV/SDN, IoT/DX, Big Data Analytics and 5G.</p>\n"
  },
  {
    "ref": "8:12",
    "html": "<strong><a href=\"https://animated-panda-6037a2.netlify.app/eileen-haggerty-bio\" hreflang=\"en\">Eileen Haggerty</a></strong>\n<p>Eileen has over 15 years working at NETSCOUT where she has held several product management and marketing roles. Prior to joining NETSCOUT, Eileen leveraged her MBA from Boston College working in a…</p>\n"
  },
  {
    "ref": "8:13",
    "html": "<strong><a href=\"https://animated-panda-6037a2.netlify.app/tom-bienkowski-bio\" hreflang=\"en\">Tom Bienkowski</a></strong>\n<p>Tom Bienkowski has been in the network and security field for over 20 years. During this time, he worked for large enterprises as a Network Engineer and for multiple network management and security…</p>\n"
  },
  {
    "ref": "8:14",
    "html": "<strong><a href=\"https://animated-panda-6037a2.netlify.app/vikram-saksena-bio\" hreflang=\"en\">Dr. Vikram Saksena</a></strong>\n<p>Saksena is a subject matter expert in modern-day technologies, such as 5G automation, fixed and mobile broadband, cloud computing, network and data center virtualization, Internet of Things (IoT),…</p>\n"
  },
  {
    "ref": "8:15",
    "html": "<strong><a href=\"https://animated-panda-6037a2.netlify.app/babak-roushanaee-bio\" hreflang=\"en\">Babak Roushanaee</a></strong>\n<p>Babak Roushanaee is director, enterprise strategy at NETSCOUT and has more than 25 years of industry and technology experience across enterprise and service provider markets with a strong background…</p>\n"
  },
  {
    "ref": "8:16",
    "html": "<strong><a href=\"https://animated-panda-6037a2.netlify.app/russ-currie-bio\" hreflang=\"en\">Russ Currie</a></strong>\n<p>A pioneer in the field of developing Ethernet network standards and practices as well as executing data center transformations, Russ Currie has been an industry leader in moving customers from their…</p>\n"
  },
  {
    "ref": "8:17",
    "html": "<strong><a href=\"https://animated-panda-6037a2.netlify.app/paul-kraus-bio\" hreflang=\"en\">Paul Kraus</a></strong>\n<p>Kraus is a well-known expert in network detection, response and intrusion detection, and network forensics. He also has deep background in security information and event management (SIEM) and cloud…</p>\n"
  },
  {
    "ref": "8:18",
    "html": "<strong><a href=\"https://animated-panda-6037a2.netlify.app/paul-barrett-bio\" hreflang=\"en\">Paul Barrett</a></strong>\n<p>A technology expert with global influence, Paul Barrett is known for his wide-ranging knowledge of enterprise cloud solutions, data center co-locations, Kubernetes architectures, big data analytics,…</p>\n"
  },
  {
    "ref": "8:19",
    "html": "<strong><a href=\"https://animated-panda-6037a2.netlify.app/thor-wallace-bio\" hreflang=\"en\">Thor Wallace</a></strong>\n<p>Thor Wallace joined NETSCOUT in January 2017 and serves as the Senior Vice President and CIO for the company. Thor and his teams have transformed the IT infrastructure into a virtualized, software-…</p>\n"
  },
  {
    "ref": "8:20",
    "html": "<strong><a href=\"https://animated-panda-6037a2.netlify.app/bruce-kelley-bio\" hreflang=\"en\">Bruce Kelley</a></strong>\n<p>Highly regarded in the technology space as a 5G, Internet of Things (IoT), edge cloud, and automation visionary and expert, Kelley regularly consults with service providers to identify challenges…</p>\n"
  },
  {
    "ref": "8:21",
    "html": "<strong><a href=\"https://animated-panda-6037a2.netlify.app/ray-krug-bio\" hreflang=\"en\">Ray Krug</a></strong>\n<p>Ray Krug is a well-known expert on cloud migration in Amazon Web Services (AWS), unified communications and collaboration (UC…</p>\n"
  },
  {
    "ref": "8:22",
    "html": "<strong><a href=\"https://animated-panda-6037a2.netlify.app/case-studies/us-medical-center-improves-healthcare-delivery\" hreflang=\"en\">U.S. Medical Center Improves Healthcare Delivery and Critical Application Performance With NETSCOUT</a></strong>\n<p>The consolidation of several tools into one with nGeniusONE is now a significant differentiator for this medical center. Beyond reducing operating expenses, NETSCOUT solutions helped collaboration…</p>\n"
  },
  {
    "ref": "8:23",
    "html": "<strong><a href=\"https://animated-panda-6037a2.netlify.app/blog/how-financial-services-company-accelerated-cloud-migration\" hreflang=\"en\">How a Financial Services Company Accelerated Cloud Migration with Actionable Visibility</a></strong>\n<p>Learn how a leading financial services company gained much needed visibility into applications running on its complex hybrid cloud infrastructure, including proactively monitoring and troubleshooting…</p>\n"
  },
  {
    "ref": "8:24",
    "html": "<strong><a href=\"https://animated-panda-6037a2.netlify.app/blog/us-vote-vulnerable-ddos-attacks\" hreflang=\"en\">Is the U.S. Vote Vulnerable to DDoS Attacks?</a></strong>\n<p>DDoS attacks are potentially threatening our election system. Mitigating those risks is vital to our nation and the health of our democracy. </p>\n"
  },
  {
    "ref": "8:25",
    "html": "<strong><a href=\"https://animated-panda-6037a2.netlify.app/case-studies/consolidating-financial-data-center-operations-netscout\" hreflang=\"en\">Consolidating Financial Data Center Operations, Addressing Remote Workforce Transitions With Smart Visibility</a></strong>\n<p>This leading financial group enjoys a significant presence in multiple global markets, offering a portfolio that includes investment, retail and commercial banking, and wealth management vehicles.</p>\n"
  },
  {
    "ref": "8:26",
    "html": "<strong><a href=\"https://animated-panda-6037a2.netlify.app/blog/asert/high-profile-ddos-extortion-attacks-september-2020\" hreflang=\"en\">High-Profile DDoS Extortion Attacks — September 2020</a></strong>\n<p>Starting in mid-August 2020, a relatively prolific threat actor initiated a global campaign of DDoS extortion attacks largely directed towards regional financial and travel-industry targets such as…</p>\n"
  },
  {
    "ref": "8:27",
    "html": "<strong><a href=\"https://animated-panda-6037a2.netlify.app/blog/bank-thwarts-merciless-ddos-attack\" hreflang=\"en\">Bank Thwarts Merciless DDoS Attack</a></strong>\n<p>Multinational bank thwarts merciless DDoS attach using mitigation solutions and expertise from NETSCOUT.</p>\n"
  },
  {
    "ref": "8:28",
    "html": "<strong><a href=\"https://animated-panda-6037a2.netlify.app/case-studies/toll-road-authority-improves-fare-collection\" hreflang=\"en\">Toll Road Authority Improves Fare Collection Application Performance With NETSCOUT</a></strong>\n<p>When transaction delays inconvenience drivers, they quickly share negative feedback over multiple social media platforms – regardless of whether the issue has surfaced at a toll plaza, sales outlet,…</p>\n"
  },
  {
    "ref": "8:29",
    "html": "<strong><a href=\"https://animated-panda-6037a2.netlify.app/case-studies/financial-services-data-center-transformation\" hreflang=\"en\">Financial Services Leader Accelerates Data Center Transformation and Maintains Business Continuity With NETSCOUT</a></strong>\n<p>&nbsp;This financial services company focuses on delivering superior, consistent results for long-term investors. As a leading investment management organization, the company maintains regional…</p>\n"
  },
  {
    "ref": "8:30",
    "html": "<strong><a href=\"https://animated-panda-6037a2.netlify.app/success-stories/isp-provides-revenue-managed-ddos-services\" hreflang=\"en\">ISP’s DDoS Mitigation and Reporting Cuts Costs and Provides Revenue via Managed DDoS Services</a></strong>\n<p>Intelligently orchestrated DDoS attack mitigation and comprehensive reporting cuts costs and produces revenue via managed DDoS protection service.\n</p>\n"
  },
  {
    "ref": "8:31",
    "html": "<strong><a href=\"https://animated-panda-6037a2.netlify.app/blog/how-one-bank-delivered-flawless-user-experience-over-vpn\" hreflang=\"en\">How One Bank Delivered Flawless User Experience Over VPN </a></strong>\n<p>A major US-based bank with 70 million customers faced IT challenges when it had to transition employees into a home-based workforce at the peak of the COVID-19 pandemic. </p>\n"
  },
  {
    "ref": "8:32",
    "html": "<strong><a href=\"https://animated-panda-6037a2.netlify.app/blog/5g-has-its-head-cloud\" hreflang=\"en\">5G Has its Head in the Cloud</a></strong>\n<p>Find out how NETSCOUT Smart Data can provide the visibility needed to achieve 5G cloud success. </p>\n"
  },
  {
    "ref": "8:33",
    "html": "<strong><a href=\"https://animated-panda-6037a2.netlify.app/blog/hospital-assures-performance-and-availability-across-isp\" hreflang=\"en\">Hospital Assures Performance and Availability Across ISP Circuits</a></strong>\n<p>A major US-based children’s hospital assured flawless application performance and IoT device security during several data center transformations. </p>\n"
  },
  {
    "ref": "8:34",
    "html": "<strong><a href=\"https://animated-panda-6037a2.netlify.app/blog/asert/lucifers-spawn\" hreflang=\"en\">Lucifer’s Spawn</a></strong>\n<p>ASERT researchers have uncovered new information about Lucifer, which is a cryptojacking and distributed denial of service (DDoS) bot, originally found to exploit and run on Windows based systems.</p>\n"
  },
  {
    "ref": "8:35",
    "html": "<strong><a href=\"https://animated-panda-6037a2.netlify.app/blog/why-targeted-decryption-increases-network-visibility\" hreflang=\"en\">Why Targeted Decryption Increases Network Visibility</a></strong>\n<p>Encryption is a requirement to send and receive data over the Internet. Learn about the types of traffic typically decrypted, and why. </p>\n"
  },
  {
    "ref": "8:36",
    "html": "<strong><a href=\"https://animated-panda-6037a2.netlify.app/netscout-product-faq\" hreflang=\"en\">NETSCOUT Product FAQ</a></strong>\n<p>Listed below are some frequently asked questions about NETSCOUT products and solutions</p>\n"
  },
  {
    "ref": "8:37",
    "html": "<strong><a href=\"https://animated-panda-6037a2.netlify.app/blog/healthcare-organization-improves-telemedicine-end-user\" hreflang=\"en\">Healthcare Organization Improves Telemedicine End-User Experience for Medical Staff and Patients </a></strong>\n<p>NETSCOUT helps a major healthcare organization improve the telemedicine experience for employees and patients.  </p>\n"
  },
  {
    "ref": "8:38",
    "html": "<strong><a href=\"https://animated-panda-6037a2.netlify.app/case-studies/Improving-Reliability-of-Business-Critical-Apps\" hreflang=\"en\">Improving Reliability and Availability of Business-Critical Applications With Enhanced NETSCOUT Visibility</a></strong>\n<p>By adding vSTREAMs to extend east-west network traffic monitoring in their virtual environments, IT’s abilities to quickly resolve service outage and business application performance issues came at a…</p>\n"
  },
  {
    "ref": "8:39",
    "html": "<strong><a href=\"https://animated-panda-6037a2.netlify.app/case-studies/software-company-doubles-test-lab-productivity\" hreflang=\"en\">Fortune 100 Software Company Doubles Test Lab Productivity and Adds Support for Remote Workers</a></strong>\n<p>Learn how this Fortune 100 software company doubled their test Lab productivity andadded support for remote workers.</p>\n"
  },
  {
    "ref": "8:40",
    "html": "<strong><a href=\"https://animated-panda-6037a2.netlify.app/case-studies/bio-tech-company-accelerates-roll-out-new-data-center\" hreflang=\"en\">Bio-Tech Company Accelerates Roll-Out of New Data Center Architecture</a></strong>\n<p>Bio-Tech Company Accelerates Roll-Out of New Data Center Architecture and  NETSCOUT Solutions Provide Visibility to Ensure Seamless End-User Experience</p>\n"
  },
  {
    "ref": "8:41",
    "html": "<strong><a href=\"https://animated-panda-6037a2.netlify.app/blog/netscout-student-hackathon-goes-global-virtual-event\" hreflang=\"en\">NETSCOUT Student Hackathon goes Global with a Virtual Event</a></strong>\n<p>Facing the COVID-19 pandemic, NETSCOUT volunteers across the globe pulled together a hugely successful virtual hackathon.</p>\n"
  },
  {
    "ref": "8:42",
    "html": "<strong><a href=\"https://animated-panda-6037a2.netlify.app/blog/international-ip-transit-provider-boosts-revenue-enhanced\" hreflang=\"en\">International IP Transit Provider Boosts Revenue with Enhanced Network Visibility</a></strong>\n<p>An IP transit provider gained much-needed visibility into customer traffic using NETSCOUT visibility solutions, helping to drive investments in additional capacity and ensuring an optimized customer…</p>\n"
  },
  {
    "ref": "8:43",
    "html": "<strong><a href=\"https://animated-panda-6037a2.netlify.app/product/ngeniusone-csp\" hreflang=\"en\">nGeniusONE for Carrier Service Providers</a></strong>\n<p>Our carrier service provider solution is deployed within mobile, fixed, cable, and satellite networks, and provides visibility to the most critical and profitable services.</p>\n"
  },
  {
    "ref": "8:44",
    "html": "<strong><a href=\"https://animated-panda-6037a2.netlify.app/blog/achieving-5g-readiness-one-size-does-not-fit-all\" hreflang=\"en\">Achieving 5G Readiness: One Size Does Not Fit All</a></strong>\n<p>Regardless whether taking a 5G standalone or non-standalone approach, CSPs will need multipurpose, high-fidelity, real-time visibility across all layers of the network. </p>\n"
  },
  {
    "ref": "8:45",
    "html": "<strong><a href=\"https://animated-panda-6037a2.netlify.app/events/isac-technology-exchange-seminar\" hreflang=\"en\">ISAC Technology Exchange Seminar</a></strong>\n<p></p>\n"
  },
  {
    "ref": "8:46",
    "html": "<strong><a href=\"https://animated-panda-6037a2.netlify.app/blog/ccaas-provider-leverages-ngeniusone\" hreflang=\"en\">Leading CCaaS Provider Leverages nGeniusONE for Service Delivery Quality</a></strong>\n<p>NETSCOUT visibility supports end user experience with Contact Center as a Service deployments</p>\n"
  },
  {
    "ref": "8:47",
    "html": "<strong><a href=\"https://animated-panda-6037a2.netlify.app/blog/keeping-elections-safe-cyberattack\" hreflang=\"en\">Keeping Elections Safe from Cyberattack</a></strong>\n<p>Technology plays a huge role in suppressing votes, and distributed denial of service (DDoS) attacks pose a real threat. Here is how to prepare.</p>\n"
  },
  {
    "ref": "8:48",
    "html": "<strong><a href=\"https://animated-panda-6037a2.netlify.app/blog/european-service-provider-protects-vpn\" hreflang=\"en\">Service Provider in Western Europe Helps Customers Protect Their VPN Even as Network Traffic Explodes </a></strong>\n<p>A large service provider protects VPN security concerns by using a NETSCOUT multilayer approach to threat management and mitigation.</p>\n"
  },
  {
    "ref": "8:49",
    "html": "<strong><a href=\"https://animated-panda-6037a2.netlify.app/blog/5g-healthcares-next-big-breakthrough\" hreflang=\"en\">5G: Healthcare’s Next Big Breakthrough</a></strong>\n<p>In a recent Forbes article, Bruce Kelley,  CTO and SVP of NETSCOUT, Service Provider, outlines some important ways that 5G networks will revolutionize healthcare. </p>\n"
  }
]
