[
  {
    "ref": "4:0",
    "html": "<strong><a href=\"https://animated-panda-6037a2.netlify.app/press-releases/netscout-reports-fourth-quarter-and-full-fiscal-year-2021\" hreflang=\"en\">NETSCOUT Reports Fourth Quarter and Full Fiscal Year 2021 Financial Results</a></strong>\n<p>WESTFORD, Mass., May 6, 2021–NETSCOUT SYSTEMS, INC. (NASDAQ: NTCT), a leading provider of service assurance, security, and business analytics, today announced financial results for its fourth quarter…</p>\n"
  },
  {
    "ref": "4:1",
    "html": "<strong><a href=\"https://animated-panda-6037a2.netlify.app/blog/manufacturer-brings-smart-visibility-microsoft-azure-migration\" hreflang=\"en\">Manufacturer Brings Smart Visibility to Microsoft Azure Migration with NETSCOUT </a></strong>\n<p>Learn how one multibillion-dollar food products manufacturer used nGeniusONE visibility and service assurance solutions before, during, and after its migration to Microsoft Azure.</p>\n"
  },
  {
    "ref": "4:2",
    "html": "<strong><a href=\"https://animated-panda-6037a2.netlify.app/what-is/2g-3g-4g\" hreflang=\"en\">What is 2G, 3G, 4G?</a></strong>\n<p>The latest and fifth generation of wireless technologies (5G) follows a 40-year history of significant wireless technologies including 4G, 3G and 2G.</p>\n"
  },
  {
    "ref": "4:3",
    "html": "<strong><a href=\"https://animated-panda-6037a2.netlify.app/what-is/5g-life-cycle\" hreflang=\"en\">What Is the 5G Life Cycle?</a></strong>\n<p>Learn about the recommended progression of steps to follow when deploying when launching commercial 5G services.  </p>\n"
  },
  {
    "ref": "4:4",
    "html": "<strong><a href=\"https://animated-panda-6037a2.netlify.app/what-is/5G\" hreflang=\"en\">What is 5G?</a></strong>\n<p>Learn more about 5G and understand commonly asked questions about the technology.</p>\n"
  },
  {
    "ref": "4:5",
    "html": "<strong><a href=\"https://animated-panda-6037a2.netlify.app/blog/what-reflection-amplification-ddos-attack\" hreflang=\"en\">What Is a Reflection/Amplification DDoS Attack?</a></strong>\n<p>Like all DDoS attacks, reflection/amplification attacks are designed to overwhelm the targeted systems, causing disruption or out-and-out shutdown of services.</p>\n"
  },
  {
    "ref": "4:6",
    "html": "<strong><a href=\"https://animated-panda-6037a2.netlify.app/blog/5g-network-for-your-company\" hreflang=\"en\">Is a Private 5G Network Right for Your Company?</a></strong>\n<p>Enterprises today have a wealth of choices when it comes to implementing a 5G network. Building your own private 5G network may make sense, depending on the business requirements.</p>\n"
  },
  {
    "ref": "4:7",
    "html": "<strong><a href=\"https://animated-panda-6037a2.netlify.app/blog/australia-under-attack\" hreflang=\"en\">Australia: DDoS Attacks Down Under</a></strong>\n<p>A year in review: Detailed DDoS attack data for Australia </p>\n"
  },
  {
    "ref": "4:8",
    "html": "<strong><a href=\"https://animated-panda-6037a2.netlify.app/webinar/protect-against-healthcare-ddos-ransomware-attacks\" hreflang=\"en\">Protect Against Healthcare DDoS &amp; Ransomware Attacks as they Grow in Complexity</a></strong>\n<p>\n\n\n</p>\n"
  },
  {
    "ref": "4:9",
    "html": "<strong><a href=\"https://animated-panda-6037a2.netlify.app/what-is/network-performance-management\" hreflang=\"en\">What is Network Performance Management ?</a></strong>\n<p>Network performance management or monitoring is the process of assessing the performance metrics of each component of the network infrastructure.</p>\n"
  },
  {
    "ref": "4:10",
    "html": "<strong><a href=\"https://animated-panda-6037a2.netlify.app/webinar/demystifying-healthcare-it\" hreflang=\"en\">Demystifying Healthcare IT </a></strong>\n<p>In this lively discussion we used plain language to bust through the shroud to share valuable knowledge.</p>\n"
  },
  {
    "ref": "4:11",
    "html": "<strong><a href=\"https://animated-panda-6037a2.netlify.app/webinar/safeguarding-physician-patient-satisfaction\" hreflang=\"en\">Safeguarding Physician &amp; Patient Satisfaction: Integrating EMR Solutions with Other Clinical Apps</a></strong>\n<p>Whether in the cloud or on-premise, most health systems and hospitals have realized that integrating their clinical applications like telemedicine and EMR solutions is essential. But, like any…</p>\n"
  },
  {
    "ref": "4:12",
    "html": "<strong><a href=\"https://animated-panda-6037a2.netlify.app/what-is/application-performance-monitoring\" hreflang=\"en\">What is Application Performance Monitoring? </a></strong>\n<p>Application performance monitoring (APM) solutions monitor IT environments to determine if performance standards are being met. APM allows IT professionals to quickly spot problems and pinpoint user-…</p>\n"
  },
  {
    "ref": "4:13",
    "html": "<strong><a href=\"https://animated-panda-6037a2.netlify.app/case-studies/school-assures-remote-learning\" hreflang=\"en\">Metropolitan Public School District Ensures Quality Student Learning Experience</a></strong>\n<p>Learn how this public school district has leveraged nGeniusONE to assure remote learning services for students and teachers.</p>\n"
  },
  {
    "ref": "4:14",
    "html": "<strong><a href=\"https://animated-panda-6037a2.netlify.app/case-studies/financial-institution-protects-networks\" hreflang=\"en\">Large European Financial Institution Employs Managed AED to Protect Their Networks, Applications and Services</a></strong>\n<p>Since the implementation of NETSCOUT’s Managed AED, the organization has not experienced any downtime due to DDoS.</p>\n"
  },
  {
    "ref": "4:15",
    "html": "<strong><a href=\"https://animated-panda-6037a2.netlify.app/blog/manufacturer-remote-work-quality\" hreflang=\"en\">Manufacturer Assures Both Availability and Quality End-User Experience for Remote Workers</a></strong>\n<p>Learn how one worldwide equipment manufacturer delivers quality remote-employee experience with nGeniusONE Service Assurance and Arbor Edge Defense DDoS protection solutions from NETSCOUT.</p>\n"
  },
  {
    "ref": "4:16",
    "html": "<strong><a href=\"https://animated-panda-6037a2.netlify.app/webinar/how-attackers-took-advantage-of-the-pandemic\" hreflang=\"en\">10 million DDoS attacks in 2020: How Attackers Took Advantage of the Pandemic</a></strong>\n<p>10 million DDoS attacks in 2020: How Attackers Took Advantage of the Pandemic\n\nIn this webinar, NETSCOUT presents the key findings from the 2020 Threat Intelligence Report which also includes the…</p>\n"
  },
  {
    "ref": "4:17",
    "html": "<strong><a href=\"https://animated-panda-6037a2.netlify.app/blog/top-ten-industries-under-attack\" hreflang=\"en\">Top Ten Industries Under Attack</a></strong>\n<p>The top 10 vertical industries under attack in the second half of 2020 further highlight the enormous impact COVID-19 had on DDoS attack activity.</p>\n"
  },
  {
    "ref": "4:18",
    "html": "<strong><a href=\"https://animated-panda-6037a2.netlify.app/blog/four-tactics-dns-defense\" hreflang=\"en\">Top Four Tactics for DNS Infrastructure Defense</a></strong>\n<p>The Domain Name System (DNS) infrastructure is a critical part of your network. Learn how to defend against DDoS attacks that can bring it down.</p>\n"
  },
  {
    "ref": "4:19",
    "html": "<strong><a href=\"https://animated-panda-6037a2.netlify.app/blog/5g-vendor-harmony-enterprises\" hreflang=\"en\">5G Providers: Is Vendor Harmony at Stake for Enterprises?</a></strong>\n<p>5G edge and enterprise 5G are game changers—but if you want to win, you’ll need to build a much deeper partnership ecosystem across enterprises, service providers, cloud providers, and system…</p>\n"
  },
  {
    "ref": "4:20",
    "html": "<strong><a href=\"https://animated-panda-6037a2.netlify.app/blog/surging-ddos-attacks-drive-mssp-demand\" hreflang=\"en\">Surging DDoS Attacks Drive Growing Demand for Third-Party Protection Services </a></strong>\n<p> A record-breaking number of DDoS attacks in 2020 has driven a surge in demand for services from managed security service providers (MSSPs).</p>\n"
  },
  {
    "ref": "4:21",
    "html": "<strong><a href=\"https://animated-panda-6037a2.netlify.app/blog/netscout-improves-military-network-visibility\" hreflang=\"en\">NETSCOUT Visibility Improves End-User Service Quality for U.S. Military Branch </a></strong>\n<p>A branch of the U.S. government used NETSCOUT’s nGeniusPULSE for visibility into the end-user experience of hundreds of thousands of personnel in locations around the globe.</p>\n"
  },
  {
    "ref": "4:22",
    "html": "<strong><a href=\"https://animated-panda-6037a2.netlify.app/blog/latest-netscout-threat-intelligence-report-highlights\" hreflang=\"en\">Latest NETSCOUT Threat Intelligence Report Highlights Unprecedented DDoS Attack Activity </a></strong>\n<p>As the latest Threat Intelligence Report shows, the COVID-19 pandemic was the clear catalyst for this year’s unprecedented DDoS attack activity. Vital pandemic industries such as ecommerce, streaming…</p>\n"
  },
  {
    "ref": "4:23",
    "html": "<strong><a href=\"https://animated-panda-6037a2.netlify.app/press-releases/vital-pandemic-industries-foster-unprecedented-ddos-attack\" hreflang=\"en\">Vital Pandemic Industries Foster Unprecedented DDoS Attack Activity According to 2H2020 NETSCOUT Threat Intelligence Report</a></strong>\n<p>NETSCOUT announces findings from its bi-annual Threat Intelligence Report, punctuated by a record-setting 10,089,687 Distributed Denial of Service (DDoS) attacks observed during 2020.</p>\n"
  },
  {
    "ref": "4:24",
    "html": "<strong><a href=\"https://animated-panda-6037a2.netlify.app/case-studies/school-district-fights-ddos-attack\" hreflang=\"en\">Large Independent School District Fights Off DDoS Attack on First Day of School</a></strong>\n<p>One of the largest Independent School Districts in Texas, United States serves a number of cities and towns and portions of unincorporated Harris County. For the 2018–2019 school year, the district…</p>\n"
  },
  {
    "ref": "4:25",
    "html": "<strong><a href=\"https://animated-panda-6037a2.netlify.app/blog/staying-ahead-sp-security\" hreflang=\"en\">Staying Ahead of Shifting ISP Security and Visibility Needs</a></strong>\n<p>When it comes to traffic visibility and DDoS defense, ISPs need a secure and service-optimized architecture that balances performance, security, cost, revenue, and customer experience.</p>\n"
  },
  {
    "ref": "4:26",
    "html": "<strong><a href=\"https://animated-panda-6037a2.netlify.app/blog/engage-21-security-summit-kicks-april-20\" hreflang=\"en\">ENGAGE 21 Security Summit Kicks Off on April 20</a></strong>\n<p>Mark your calendars for NETSCOUT’s free ENGAGE Security Summit on Tuesday, April 20-21, 2021.</p>\n"
  },
  {
    "ref": "4:27",
    "html": "<strong><a href=\"https://animated-panda-6037a2.netlify.app/blog/engage-21-changes-game\" hreflang=\"en\">ENGAGE 21 Changes the Game</a></strong>\n<p>ENGAGE 21, NETSCOUT’s annual technology and user summit, will once again go virtual with an agenda designed to help companies overcome challenges, and thrive in today’s connected world. </p>\n"
  },
  {
    "ref": "4:28",
    "html": "<strong><a href=\"https://animated-panda-6037a2.netlify.app/case-studies/monitoring-data-center-operations\" hreflang=\"en\">Monitoring to the Edge with Smart Visibility in Data Center Operations</a></strong>\n<p>Because of the budget savings made possible by deploying the NETSCOUT solutions, the path to grow the monitoring network as the production network grows is now far more cost-effective and affordable.</p>\n"
  },
  {
    "ref": "4:29",
    "html": "<strong><a href=\"https://animated-panda-6037a2.netlify.app/blog/netscout-partner-dell-technologies-oem-solutions\" hreflang=\"en\">NETSCOUT to Partner with Dell Technologies OEM Solutions </a></strong>\n<p>NETSCOUT today announced a collaboration with Dell Technologies OEM Solutions to deliver solutions designed for medium-to-large-sized enterprises looking for agile, cost-efficient solutions to…</p>\n"
  },
  {
    "ref": "4:30",
    "html": "<strong><a href=\"https://animated-panda-6037a2.netlify.app/case-studies/network-visibility-remote-medical\" hreflang=\"en\">Visibility Extended to Remote Medical Buildings for Protecting Health Care Services</a></strong>\n<p>Founded more than a century ago, this healthcare is a national leader in delivering patient care, as well as advancing research and treatment protocols in several critical specialty areas.</p>\n"
  },
  {
    "ref": "4:31",
    "html": "<strong><a href=\"https://animated-panda-6037a2.netlify.app/press-releases/netscout-dell-partnership\" hreflang=\"en\">NETSCOUT TO SUPPORT ENTERPRISES IN THEIR DIGITAL TRANSFORMATION JOURNEY</a></strong>\n<p>NETSCOUT announced a collaboration with Dell Technologies OEM Solutions to deliver solutions designed for medium-to-large-sized enterprises looking for agile, cost-efficient solutions to address…</p>\n"
  },
  {
    "ref": "4:32",
    "html": "<strong><a href=\"https://animated-panda-6037a2.netlify.app/product/omnis-ids\" hreflang=\"en\">Omnis IDS</a></strong>\n<p>NETSCOUT’s Omnis IDS is a sophisticated, high-performance intrusion detection solution for enterprises of all sizes. </p>\n"
  },
  {
    "ref": "4:33",
    "html": "<strong><a href=\"https://animated-panda-6037a2.netlify.app/blog/smart-cities-and-5G\" hreflang=\"en\">Make It Smarter: 5G Networks in the City </a></strong>\n<p>As cities get smarter, their networks will evolve to support the growing need for pervasive wireless technologies, open data, and trusted security. Visualize how a smart city powered by 5G could look…</p>\n"
  },
  {
    "ref": "4:34",
    "html": "<strong><a href=\"https://animated-panda-6037a2.netlify.app/blog/cybersecurity-remote-work-world\" hreflang=\"en\">Cybersecurity in a Remote Work World</a></strong>\n<p>Pandemic-driven work-from-home policies are likely to persist well into 2021, and for many, remote work will become a perma</p>\n"
  },
  {
    "ref": "4:35",
    "html": "<strong><a href=\"https://animated-panda-6037a2.netlify.app/blog/pay-or-not-pay-ransomware-question\" hreflang=\"en\">To Pay or Not to Pay—That Is the Ransomware Question</a></strong>\n<p>Ransomware attacks are on the rise. Today’s attackers are highly sophisticated, using techniques and encryption that is virtually unbreakable. But paying the ransom is a bad idea.</p>\n"
  },
  {
    "ref": "4:36",
    "html": "<strong><a href=\"https://animated-panda-6037a2.netlify.app/webinar/microsoft-rdp-exploited-ddos-extortion\" hreflang=\"en\">Microsoft RDP, DNS and Other Protocols are Exploited in DDoS Extortion Campaign</a></strong>\n<p>#webinarModal .ns-container--tb-margin-md {margin-top: 3rem;}\n\nFor the past several months NETSCOUT’s ATLAS Security Engineering and Response Team (ASERT) has been tracking and helping organizations…</p>\n"
  },
  {
    "ref": "4:37",
    "html": "<strong><a href=\"https://animated-panda-6037a2.netlify.app/what-is/test-lab-automation\" hreflang=\"en\">What is Test Lab Automation?</a></strong>\n<p>Test Lab Automation is the practice of testing applications and devices in a more efficient way than executing tests manually. While there are various levels of Test Lab Automation, a robust Test Lab…</p>\n"
  },
  {
    "ref": "4:38",
    "html": "<strong><a href=\"https://animated-panda-6037a2.netlify.app/blog/improving-end-user-service-quality\" hreflang=\"en\">End-User Service Quality Improves with NETSCOUT Visibility</a></strong>\n<p>Learn how an insurance company used NETSCOUT’s nGeniusONE to help improve call quality for customers during enrollment time.</p>\n"
  },
  {
    "ref": "4:39",
    "html": "<strong><a href=\"https://animated-panda-6037a2.netlify.app/use-case/dns-infrastructure\" hreflang=\"en\">Defending your DNS Infrastructure</a></strong>\n<p>The DNS (Domain Name System) protocol is a critical part of the Internet’s control plane, providing name resolution functionality and supporting other capabilities that are taken for granted such as…</p>\n"
  },
  {
    "ref": "4:40",
    "html": "<strong><a href=\"https://animated-panda-6037a2.netlify.app/use-case/closed-loop-automation\" hreflang=\"en\">Closed-Loop Automation</a></strong>\n<p>Automation is a key area of focus for all network operators as they strive to reduce operational overhead costs, improve service levels and expand their value-added service portfolios.</p>\n"
  },
  {
    "ref": "4:41",
    "html": "<strong><a href=\"https://animated-panda-6037a2.netlify.app/use-case/carpet-bombing-attacks\" hreflang=\"en\">Defending Against Carpet Bombing DDoS Attacks</a></strong>\n<p>‘Carpet Bombing’ is a term used to describe DDoS attacks that target a range of addresses or subnets, which can contain hundreds or even thousands of destination IP addresses.</p>\n"
  },
  {
    "ref": "4:42",
    "html": "<strong><a href=\"https://animated-panda-6037a2.netlify.app/case-studies/airline-ensures-application-performance-aws\" hreflang=\"en\">Airline Ensures Application Performance in AWS with NETSCOUT Visibility</a></strong>\n<p>This North American based airline carrier is one of the top 25 largest in the world, serving an average of more than 4 million customers monthly.</p>\n"
  },
  {
    "ref": "4:43",
    "html": "<strong><a href=\"https://animated-panda-6037a2.netlify.app/blog/your-vpn-gateway-vulnerable-ddos-attacks\" hreflang=\"en\">Is Your VPN Gateway Vulnerable to DDoS Attacks?</a></strong>\n<p>VPN gateways are a crucial link for business performance, which makes them a ripe target. Taking steps to protect these gateways is prudent. </p>\n"
  },
  {
    "ref": "4:44",
    "html": "<strong><a href=\"https://animated-panda-6037a2.netlify.app/blog/building-cybersecurity-strategy-covid-19-vaccine\" hreflang=\"en\">Building a Cybersecurity Strategy for the COVID-19 Vaccine</a></strong>\n<p>The emergence of effective COVID-19 vaccines represents an extraordinary scientific achievement—as well as a global challenge when it comes to the logistics involved in getting needles into arms. And…</p>\n"
  },
  {
    "ref": "4:45",
    "html": "<strong><a href=\"https://animated-panda-6037a2.netlify.app/case-studies/medical-supplier-gains-complete-visibility-distribution\" hreflang=\"en\">Medical Supplier Gains Complete Visibility Into Distribution Facilities With NETSCOUT</a></strong>\n<p>Assures Business Operations Across On-Premises and Virtual Environments</p>\n"
  },
  {
    "ref": "4:46",
    "html": "<strong><a href=\"https://animated-panda-6037a2.netlify.app/blog/overcoming-challenges-cloud-migration\" hreflang=\"en\">Overcoming the Challenges of Cloud Migration </a></strong>\n<p>Microservice applications are fast becoming an IT preference because of the increased agility and scalability they offer. And with rising adoption, more and more organizations are migrating these…</p>\n"
  },
  {
    "ref": "4:47",
    "html": "<strong><a href=\"https://animated-panda-6037a2.netlify.app/blog/asert/datagram-transport-layer-security-dtls-reflectionamplification\" hreflang=\"en\">Datagram Transport Layer Security (D/TLS) Reflection/Amplification DDoS Attack Mitigation Recommendations </a></strong>\n<p>Datagram Transport Layer Security (D/TLS) is a variant of the TLS encryption protocol implemented atop User Datagram Protocol (UDP), it is utilized to secure datagram-based applications to prevent…</p>\n"
  },
  {
    "ref": "4:48",
    "html": "<strong><a href=\"https://animated-panda-6037a2.netlify.app/events/onug-spring\" hreflang=\"en\">ONUG Spring</a></strong>\n<p>Lorem ipsum dolor sit amet, consectetur adipiscing elit. Sed facilisis tellus lorem, at rutrum diam pharetra quis. Sed venenatis massa at libero viverra, vel pretium dui semper.</p>\n"
  },
  {
    "ref": "4:49",
    "html": "<strong><a href=\"https://animated-panda-6037a2.netlify.app/case-studies/pharma-improves-ucc-performance-netscout\" hreflang=\"en\">Pharma Improves Multi-Vendor UC&amp;C Performance With NETSCOUT</a></strong>\n<p>This U.S. pharmaceutical company is in a sustained corporate expansion mode, enabling the business to bring-to-market enhanced solutions for disease management, improved outcomes, and patient…</p>\n"
  }
]
