[
  {
    "ref": "1:0",
    "html": "<strong><a href=\"https://animated-panda-6037a2.netlify.app/case-studies/government-relief-assistance-netscout-smart-edge-visibility\" hreflang=\"en\">Assuring Government Relief Assistance With NETSCOUT Smart Edge Visibility</a></strong>\n<p>Many government agencies have provided unprecedented support to their constituents during the pandemic.</p>\n"
  },
  {
    "ref": "1:1",
    "html": "<strong><a href=\"https://animated-panda-6037a2.netlify.app/what-is/tig\" hreflang=\"en\">What is the Threat Intelligence Gateway (TIG)?</a></strong>\n<p>High-scale, high-efficiency blocking of known threats at the perimeter, based on reputation: IP/Proto/Port, Domain, URL, TLS cert / JA3. A TIG can consumed and enforce 4+ million Indicators in memory…</p>\n"
  },
  {
    "ref": "1:2",
    "html": "<strong><a href=\"https://animated-panda-6037a2.netlify.app/what-is/Threat-Event\" hreflang=\"en\">What is a Threat Event?</a></strong>\n<p>An event or situation that has the potential for causing undesirable consequences or impact.</p>\n"
  },
  {
    "ref": "1:3",
    "html": "<strong><a href=\"https://animated-panda-6037a2.netlify.app/what-is/Threat-Assessment\" hreflang=\"en\">What is Threat Assessment?</a></strong>\n<p>Process of formally evaluating the degree of threat to an information system or enterprise and describing the nature of the threat.</p>\n"
  },
  {
    "ref": "1:4",
    "html": "<strong><a href=\"https://animated-panda-6037a2.netlify.app/what-is/threat\" hreflang=\"en\">What is a Threat?</a></strong>\n<p>Any circumstance or event with the potential to adversely impact organizational operations (including mission, functions, image, or reputation), organizational assets, individuals, other…</p>\n"
  },
  {
    "ref": "1:5",
    "html": "<strong><a href=\"https://animated-panda-6037a2.netlify.app/what-is/stix\" hreflang=\"en\">What is STIX?</a></strong>\n<p>Structured Threat Information Expression (STIX) a language and serialization format used to exchange cyber threat intelligence (CTI).</p>\n"
  },
  {
    "ref": "1:6",
    "html": "<strong><a href=\"https://animated-panda-6037a2.netlify.app/node/89871\" hreflang=\"en\">What is STIX?</a></strong>\n<p>Structured Threat Information Expression (STIX) a language and serialization format used to exchange cyber threat intelligence (CTI).</p>\n"
  },
  {
    "ref": "1:7",
    "html": "<strong><a href=\"https://animated-panda-6037a2.netlify.app/what-is/stealth-mode\" hreflang=\"en\">What is Stealth Mode?</a></strong>\n<p>Operating an intrusion detection and prevention sensor without IP addresses assigned to its monitoring network interfaces.</p>\n"
  },
  {
    "ref": "1:8",
    "html": "<strong><a href=\"https://animated-panda-6037a2.netlify.app/what-is/stateless-inspection\" hreflang=\"en\">What is Stateless Inspection?</a></strong>\n<p>Stateless inspection doesn’t track individual connections / sessions but makes a “go / no go” decision on a packet-by-packet basis. It’s better for stopping certain types of DDoS attacks (i.e. TCP-…</p>\n"
  },
  {
    "ref": "1:9",
    "html": "<strong><a href=\"https://animated-panda-6037a2.netlify.app/what-is/Stateful-Protocol-Analysis\" hreflang=\"en\">What is Stateful Protocol Analysis?</a></strong>\n<p>The process of comparing predetermined profiles of generally accepted definitions of benign protocol activity for each protocol state against observed events to identify deviations.</p>\n"
  },
  {
    "ref": "1:10",
    "html": "<strong><a href=\"https://animated-panda-6037a2.netlify.app/what-is/Stateful-Inspection\" hreflang=\"en\">What is Stateful Inspection?</a></strong>\n<p>Stateful inspection, also known as dynamic packet filtering, is a technology (i.e. in NGFW) that monitors the state of known active connections and uses this information to determine which network…</p>\n"
  },
  {
    "ref": "1:11",
    "html": "<strong><a href=\"https://animated-panda-6037a2.netlify.app/what-is/shim\" hreflang=\"en\">What is Shim?</a></strong>\n<p>A layer of host-based intrusion detection and prevention code placed between existing layers of code on a host that intercepts data and analyzes it.</p>\n"
  },
  {
    "ref": "1:12",
    "html": "<strong><a href=\"https://animated-panda-6037a2.netlify.app/what-is/Sensor\" hreflang=\"en\">What is a Sensor?</a></strong>\n<p>An intrusion detection and prevention system component that monitors and analyzes network activity and may also perform prevention actions.</p>\n"
  },
  {
    "ref": "1:13",
    "html": "<strong><a href=\"https://animated-panda-6037a2.netlify.app/what-is/Security-Posture\" hreflang=\"en\">What is Security Posture?</a></strong>\n<p>The security status of an enterprise’s networks, information, and systems based on IA resources and capabilities in place to manage the defense of the enterprise and to react as the situation changes.</p>\n"
  },
  {
    "ref": "1:14",
    "html": "<strong><a href=\"https://animated-panda-6037a2.netlify.app/what-is/Sandboxing\" hreflang=\"en\">What is Sandboxing?</a></strong>\n<p>A method of isolating application modules into distinct fault domains enforced by software. The technique allows untrusted programs written in an unsafe language, such as C, to be executed safely…</p>\n"
  },
  {
    "ref": "1:15",
    "html": "<strong><a href=\"https://animated-panda-6037a2.netlify.app/what-is/rto\" hreflang=\"en\">What is RTO?</a></strong>\n<p>Recovery Time Objective (RTO) is the overall length of time an information system’s components can be in the recovery phase before negatively impacting the organization’s mission or mission/business…</p>\n"
  },
  {
    "ref": "1:16",
    "html": "<strong><a href=\"https://animated-panda-6037a2.netlify.app/what-is/rpo\" hreflang=\"en\">What is RPO?</a></strong>\n<p>Recovery Point Objective (RPO) is the point in time to which data must be recovered after an outage.</p>\n"
  },
  {
    "ref": "1:17",
    "html": "<strong><a href=\"https://animated-panda-6037a2.netlify.app/what-is/root-kit\" hreflang=\"en\">What is Root Kit?</a></strong>\n<p>A set of software tools that enable an unauthorized user to gain control of a computer system without being detected.</p>\n"
  },
  {
    "ref": "1:18",
    "html": "<strong><a href=\"https://animated-panda-6037a2.netlify.app/what-is/risk-mitigation\" hreflang=\"en\">What is Risk Mitigation?</a></strong>\n<p>Prioritizing, evaluating, and implementing the appropriate risk reducing controls/countermeasures recommended from the risk management process.</p>\n"
  },
  {
    "ref": "1:19",
    "html": "<strong><a href=\"https://animated-panda-6037a2.netlify.app/what-is/risk-management\" hreflang=\"en\">What is Risk Management?</a></strong>\n<p>The process of managing risks to organizational operations (including mission,  functions, image, reputation), organizational assets, individuals, other organizations, and the Nation, resulting from…</p>\n"
  },
  {
    "ref": "1:20",
    "html": "<strong><a href=\"https://animated-panda-6037a2.netlify.app/what-is/risk-assessment\" hreflang=\"en\">What is Risk Assessment?</a></strong>\n<p>The process of identifying risks to organizational operations organizational assets, individuals, other organizations, and the Nation, arising through the operation of an information system.</p>\n"
  },
  {
    "ref": "1:21",
    "html": "<strong><a href=\"https://animated-panda-6037a2.netlify.app/what-is/risk\" hreflang=\"en\">What is Risk?</a></strong>\n<p>The level of impact on organizational operations organizational assets, or individuals resulting from the operation of an information system given the potential impact of a threat and the likelihood…</p>\n"
  },
  {
    "ref": "1:22",
    "html": "<strong><a href=\"https://animated-panda-6037a2.netlify.app/what-is/remote-access\" hreflang=\"en\">What is Remote Access?</a></strong>\n<p>Access to an organizational information system by a user (or an information system acting on behalf of a user) communicating through an external network (e.g., the Internet).</p>\n"
  },
  {
    "ref": "1:23",
    "html": "<strong><a href=\"https://animated-panda-6037a2.netlify.app/what-is/remediation\" hreflang=\"en\">What is Remediation?</a></strong>\n<p>The act of correcting vulnerability or eliminating a threat. Three possible types of remediation are installing a patch, adjusting configuration settings, or uninstalling a software application.</p>\n"
  },
  {
    "ref": "1:24",
    "html": "<strong><a href=\"https://animated-panda-6037a2.netlify.app/what-is/probe\" hreflang=\"en\">What is a Probe?</a></strong>\n<p>A system component that monitors and analyzes network activity and may also perform prevention actions.</p>\n"
  },
  {
    "ref": "1:25",
    "html": "<strong><a href=\"https://animated-panda-6037a2.netlify.app/what-is/pii\" hreflang=\"en\">What is PII?</a></strong>\n<p>Personally Identifiable Data (PII) is information that can be used to uniquely identify , contact, or locate a single person.</p>\n"
  },
  {
    "ref": "1:26",
    "html": "<strong><a href=\"https://animated-panda-6037a2.netlify.app/what-is/Phishing\" hreflang=\"en\">What is Phishing?</a></strong>\n<p>Deceiving individuals into disclosing sensitive personal information through deceptive computer-based means.</p>\n"
  },
  {
    "ref": "1:27",
    "html": "<strong><a href=\"https://animated-panda-6037a2.netlify.app/what-is/Perimeter\" hreflang=\"en\">What is Perimeter?</a></strong>\n<p>Encompasses all those components of the system that are to be accredited by the DAA, and excludes separately accredited systems to which the system is connected.</p>\n"
  },
  {
    "ref": "1:28",
    "html": "<strong><a href=\"https://animated-panda-6037a2.netlify.app/what-is/Perfect-Forward-Secrecy\" hreflang=\"en\">What is Perfect Forward Secrecy?</a></strong>\n<p>A feature of specific key agreement protocols that gives assurances that session keys will not be compromised even if the private key of the server is compromised.</p>\n"
  },
  {
    "ref": "1:29",
    "html": "<strong><a href=\"https://animated-panda-6037a2.netlify.app/what-is/penetration-testing\" hreflang=\"en\">What is Penetration Testing?</a></strong>\n<p>A test methodology in which assessors, using all available documentation and working under specific constraints, attempt to circumvent the security features of an information system.</p>\n"
  },
  {
    "ref": "1:30",
    "html": "<strong><a href=\"https://animated-panda-6037a2.netlify.app/what-is/Passive-Sensor\" hreflang=\"en\">What is Passive Sensor?</a></strong>\n<p>A sensor that is deployed so that it monitors a copy of the actual network traffic.</p>\n"
  },
  {
    "ref": "1:31",
    "html": "<strong><a href=\"https://animated-panda-6037a2.netlify.app/what-is/Passive-Fingerprinting\" hreflang=\"en\">What is Passive Fingerprinting?</a></strong>\n<p>Analyzing packet headers for certain unusual characteristics or combinations of characteristics that are exhibited by particular operating systems or applications.</p>\n"
  },
  {
    "ref": "1:32",
    "html": "<strong><a href=\"https://animated-panda-6037a2.netlify.app/what-is/Parser\" hreflang=\"en\">What is Parser?</a></strong>\n<p>A software module that defines tokens and instructions for lexical processing of network streams.</p>\n"
  },
  {
    "ref": "1:33",
    "html": "<strong><a href=\"https://animated-panda-6037a2.netlify.app/what-is/Packet-Capture\" hreflang=\"en\">What is Packet Capture?</a></strong>\n<p>Packet capture is a computer networking term for intercepting a data packet that is crossing or moving over a specific computer network.</p>\n"
  },
  {
    "ref": "1:34",
    "html": "<strong><a href=\"https://animated-panda-6037a2.netlify.app/what-is/overblocking\" hreflang=\"en\">What is Overblocking?</a></strong>\n<p>In the context of DDoS defense, inadvertent blocking of legitimate network traffic directed towards servers/applications/services/infrastructure which are under protection.</p>\n"
  },
  {
    "ref": "1:35",
    "html": "<strong><a href=\"https://animated-panda-6037a2.netlify.app/what-is/nGenius-Infinistream-NG\" hreflang=\"en\">What is nGenius Infinistream NG?</a></strong>\n<p>A Netscout proprietary capture architecture, comprising the packet, session, and meta data from the network to Athena. </p>\n"
  },
  {
    "ref": "1:36",
    "html": "<strong><a href=\"https://animated-panda-6037a2.netlify.app/what-is/Next-Generation-Firewall\" hreflang=\"en\">What is Next-Generation Firewall (NGFW)?</a></strong>\n<p>A Next-Generation Firewall (NGFW) is a part of the third generation of firewall technology, combining a traditional firewall with other network device filtering functionalities, such as an…</p>\n"
  },
  {
    "ref": "1:37",
    "html": "<strong><a href=\"https://animated-panda-6037a2.netlify.app/what-is/Network-Tap\" hreflang=\"en\">What is Network Tap?</a></strong>\n<p>A direct connection between a sensor and the physical network media itself, such as a fiber optic cable.</p>\n"
  },
  {
    "ref": "1:38",
    "html": "<strong><a href=\"https://animated-panda-6037a2.netlify.app/what-is/Network-Security-Stack\" hreflang=\"en\">What is Network Security Stack?</a></strong>\n<p>The term ‘Security Stack’ is used to help visualize the many different cyber security tools (many times depicted in layers) that an organization uses to protect themselves from cyber threats.</p>\n"
  },
  {
    "ref": "1:39",
    "html": "<strong><a href=\"https://animated-panda-6037a2.netlify.app/what-is/Network-Behavior-Analysis-System\" hreflang=\"en\">What is the Network Behavior Analysis System?</a></strong>\n<p>An intrusion detection and prevention system that examines network traffic to identify and stop threats that generate unusual traffic flows.</p>\n"
  },
  {
    "ref": "1:40",
    "html": "<strong><a href=\"https://animated-panda-6037a2.netlify.app/what-is/network-access-control\" hreflang=\"en\">What is Network Access Control?</a></strong>\n<p>A feature provided by some firewalls that allow access based on a user’s credentials and the results of health checks performed on the telework client device.</p>\n"
  },
  {
    "ref": "1:41",
    "html": "<strong><a href=\"https://animated-panda-6037a2.netlify.app/what-is/mitm\" hreflang=\"en\">What is MiTM?</a></strong>\n<p>Man-in-the-middle – a type of attack where the attacker can intercept, monitor, and potentially change data in transit.</p>\n"
  },
  {
    "ref": "1:42",
    "html": "<strong><a href=\"https://animated-panda-6037a2.netlify.app/what-is/moderate-impact\" hreflang=\"en\">What is Moderate Impact?</a></strong>\n<p>The loss of confidentiality, integrity, or availability could be expected to have a serious adverse impact on the mission, core services and/or supporting services of the entity, meaning, for example…</p>\n"
  },
  {
    "ref": "1:43",
    "html": "<strong><a href=\"https://animated-panda-6037a2.netlify.app/what-is/mitigation\" hreflang=\"en\">What is Mitigation?</a></strong>\n<p>To lessen in force or intensity. To mitigate vulnerability is to take actions that reduce the vulnerability’s impact or exposure.</p>\n"
  },
  {
    "ref": "1:44",
    "html": "<strong><a href=\"https://animated-panda-6037a2.netlify.app/what-is/metadata\" hreflang=\"en\">What is Metadata?</a></strong>\n<p>Specific data types (Service Type, Action Event, Source IP Address, etc.) created by the parsers which are counted and itemized in the captured data. A detailed list of metadata for each parser may…</p>\n"
  },
  {
    "ref": "1:45",
    "html": "<strong><a href=\"https://animated-panda-6037a2.netlify.app/what-is/management-server\" hreflang=\"en\">What is the Management Server?</a></strong>\n<p>A centralized device that receives information from sensors or agents and manages them.</p>\n"
  },
  {
    "ref": "1:46",
    "html": "<strong><a href=\"https://animated-panda-6037a2.netlify.app/what-is/management-network\" hreflang=\"en\">What is the Management Network?</a></strong>\n<p>A separate network strictly designed for security software management.</p>\n"
  },
  {
    "ref": "1:47",
    "html": "<strong><a href=\"https://animated-panda-6037a2.netlify.app/blog/ddos-protection-healthcare-provider\" hreflang=\"en\">Health Care Provider Gains Critical DDoS Protection and Performance Visibility for Patient Services During COVID-19</a></strong>\n<p>See how a leading health care organization protected performance and availability for patient services at the DMZ of its data centers with DDoS protection outside and service assurance inside for the…</p>\n"
  },
  {
    "ref": "1:48",
    "html": "<strong><a href=\"https://animated-panda-6037a2.netlify.app/what-is/malware\" hreflang=\"en\">What is Malware?</a></strong>\n<p>A program that is inserted into a system, usually covertly, with the intent of compromising the confidentiality, integrity, or availability of the victim’s data, applications, or operating system or…</p>\n"
  },
  {
    "ref": "1:49",
    "html": "<strong><a href=\"https://animated-panda-6037a2.netlify.app/what-is/malicious-code\" hreflang=\"en\">What is Malicious Code?</a></strong>\n<p>Software or firmware intended to perform an unauthorized process that will have  adverse impact on the confidentiality, integrity, or availability of an information system.</p>\n"
  }
]
