[
  {
    "ref": "0:0",
    "html": "<strong><a href=\"https://animated-panda-6037a2.netlify.app/pt/product/arbor-cloud\" hreflang=\"pt-br\">Serviços de Proteção contra DDoS do Arbor Cloud</a></strong>\n<p>Proteção de ataque DDoS totalmente gerenciada e automatizada de forma inteligente</p>\n"
  },
  {
    "ref": "0:1",
    "html": "<strong><a href=\"https://animated-panda-6037a2.netlify.app/pt/product/arbor-sightline\" hreflang=\"pt-br\">Arbor Sightline</a></strong>\n<p>Fundamento para visibilidade da rede, gerenciamento de ameaças, mitigação de DDoS e geração de receita. </p>\n"
  },
  {
    "ref": "0:2",
    "html": "<strong><a href=\"https://animated-panda-6037a2.netlify.app/pt/product/arbor-sightline-sentinel\" hreflang=\"pt-br\">Arbor Sightline With Sentinel</a></strong>\n<p>Ampla visibilidade da rede e mitigação automatizada de ameaças.</p>\n"
  },
  {
    "ref": "0:3",
    "html": "<strong><a href=\"https://animated-panda-6037a2.netlify.app/pt/product/arbor-threat-mitigation-system\" hreflang=\"pt-br\">Arbor Threat Mitigation System</a></strong>\n<p>Garanta a disponibilidade e o desempenho do serviço oferecendo mitigação automática de ataques DDoS.</p>\n"
  },
  {
    "ref": "0:4",
    "html": "<strong><a href=\"https://animated-panda-6037a2.netlify.app/pt/product/ngeniusone-csp\" hreflang=\"pt-br\">nGeniusONE para operadoras</a></strong>\n<p>Nossa solução de operadora é implementada em redes móveis, fixas, a cabo e via satélite, fornecendo visibilidade para os serviços mais críticos e lucrativos.</p>\n"
  },
  {
    "ref": "0:5",
    "html": "<strong><a href=\"https://animated-panda-6037a2.netlify.app/pt/product/arbor-sightline-insight\" hreflang=\"pt-br\">Arbor Sightline With Insight</a></strong>\n<p>Ao fornecer visibilidade inteligente do tráfego de rede e obter informações sobre a sua origem, o Sightline com Informação permite uma engenharia de tráfego mais precisa, planejamento de rede e…</p>\n"
  },
  {
    "ref": "0:6",
    "html": "<strong><a href=\"https://animated-panda-6037a2.netlify.app/pt/product/cyber-investigator\" hreflang=\"pt-br\">Cyber Investigator</a></strong>\n<p>O Cyber Investigator é uma plataforma corporativa de investigação de riscos e ameaças de rede que ajuda as equipes de cibersegurança a detectar, validar, investigar e responder às ameaças com…</p>\n"
  },
  {
    "ref": "0:7",
    "html": "<strong><a href=\"https://animated-panda-6037a2.netlify.app/pt/product/netscout-aed\" hreflang=\"pt-br\">Arbor Edge Defense</a></strong>\n<p>Arbor Edge Defense (AED) é um dispositivo de segurança em linha implantado no perímetro da rede, ou seja, entre o roteador da internet e o firewall.</p>\n"
  }
]
